{
    "current_risk": [
        {
            "average_risk": 0.3,
            "current_cat": "Current risk"
        }
    ],
    "general_risk": [
        {
            "source_db": "oya_56",
            "state_laws_risk": 0.15,
            "current_liabilities_risk": 0.0,
            "nexus_risk": 0,
            "data_quality_risk": 0.1,
            "derived_liabilities_risk": 0.2,
            "exceptions_risk": 0.4068974505725223
        }
    ],
    "goods_movement": [
        {
            "source_state": "CA",
            "destination_state": "NJ",
            "num_transactions": 3
        },
        {
            "source_state": "CA",
            "destination_state": "AZ",
            "num_transactions": 12
        },
        {
            "source_state": "ND",
            "destination_state": "AZ",
            "num_transactions": 1
        },
        {
            "source_state": "WA",
            "destination_state": "FL",
            "num_transactions": 7
        }
    ],
    "risk_over_time": [
        {
            "state_laws_risk": 0.15,
            "nexus_risk": 0.0,
            "data_quality_risk": 0.3,
            "current_liabilities_risk": 0.1,
            "derived_liabilities_risk": 0.2,
            "exceptions_risk": 0.4068974505725223,
            "createdDate": "2020-04-01 00:01:01.896386",
            "row_count": 1
        },
        {
            "state_laws_risk": 0.25,
            "nexus_risk": 0.2,
            "data_quality_risk": 0.3,
            "current_liabilities_risk": 0.1,
            "derived_liabilities_risk": 0.2,
            "exceptions_risk": 0.4068974505725223,
            "createdDate": "2020-03-01 00:01:01.896386",
            "row_count": 2
        },
        {
            "state_laws_risk": 0.35,
            "nexus_risk": 0.0,
            "data_quality_risk": 0.3,
            "current_liabilities_risk": 0.1,
            "derived_liabilities_risk": 0.2,
            "exceptions_risk": 0.4068974505725223,
            "createdDate": "2020-02-15 00:01:01.896386",
            "row_count": 3
        },
        {
            "state_laws_risk": 0.45,
            "nexus_risk": 0.2,
            "data_quality_risk": 0.3,
            "current_liabilities_risk": 0.3,
            "derived_liabilities_risk": 0.1,
            "exceptions_risk": 0.4068974505725223,
            "createdDate": "2020-01-01 00:01:01.896386",
            "row_count": 4
        }
    ]
}
